{
  "name": "testnet",
  "messagePrefix": "tBIN message:\n",
  "bip32": {
    "public": 70617039,
    "private": 70615956
  },
  "pubKeyHash": 55,
  "nethash": "f875e68f315b9415edb15ad39c29a5f021a85e5a41ef2fd526c5d2d3639f8d24",
  "wif": 206,
  "slip44": 1,
  "aip20": 0,
  "client": {
    "token": "tBIN",
    "symbol": "⟐",
    "explorer": "http://0.0.0.0:4200"
  }
}
